cu_logic.vcd
$date
	Fri Jul  3 00:00:36 2026
$end
$version
	Icarus Verilog
$end
$timescale
	1ps
$end
$scope module control_unit_tb $end
$scope module cu $end
$var wire 1 ! CLK $end
$var wire 1 " carry_in $end
$var wire 1 # zero_in $end
$var wire 8 $ inst [7:0] $end
$var parameter 2 % DECODE $end
$var parameter 2 & EXECUTE $end
$var parameter 2 ' FETCH $end
$var parameter 2 ( FETCH_IMMEDIATE $end
$var reg 3 ) ALUOP [2:0] $end
$var reg 8 * IMMEDIATE [7:0] $end
$var reg 1 + MUX1_SEL $end
$var reg 1 , MUX2_SEL $end
$var reg 1 - MUX3_SEL $end
$var reg 8 . PC [7:0] $end
$var reg 3 / READREG1 [2:0] $end
$var reg 3 0 READREG2 [2:0] $end
$var reg 1 1 WRITEENABLE $end
$var reg 3 2 WRITEREG [2:0] $end
$var reg 1 3 WRITE_STACK_ENABLE $end
$var reg 1 4 call_enable $end
$var reg 1 5 carry_flag $end
$var reg 1 6 carry_use $end
$var reg 1 7 immediate_flag $end
$var reg 1 8 jmp_enable $end
$var reg 8 9 stack_pointer [7:0] $end
$var reg 8 : stack_value [7:0] $end
$var reg 2 ; state [1:0] $end
$var reg 1 < zero_flag $end
$scope task branch_logic $end
$var reg 1 = flag $end
$upscope $end
$scope task return_logic $end
$var reg 1 > flag $end
$upscope $end
$upscope $end
$upscope $end
$scope module control_unit_tb $end
$scope module mem $end
$var wire 1 ! CLK $end
$var wire 8 ? PC [7:0] $end
$var wire 1 3 WRITE_STACK_ENABLE $end
$var wire 8 @ inst [7:0] $end
$var wire 8 A stack_pointer [7:0] $end
$var wire 8 B stack_value [7:0] $end
$upscope $end
$upscope $end
$enddefinitions $end
$comment Show the parameter values. $end
$dumpall
b11 (
b0 '
b10 &
b1 %
$end
#0
$dumpvars
bx B
b11111111 A
b1 @
b0 ?
x>
x=
0<
b0 ;
bx :
b11111111 9
08
07
06
05
04
03
bx 2
01
bx 0
bx /
b0 .
0-
0,
0+
bx *
bx )
b1 $
z#
z"
0!
$end
#5000
b1 ;
1!
#10000
0!
#15000
b10 ;
b1 0
b0 )
b0 2
b0 /
1!
#20000
0!
#25000
b1000110 $
b1000110 @
b0 ;
b1 .
b1 ?
11
1!
#30000
0!
#35000
01
b1 ;
1!
#40000
0!
#45000
b10000101 $
b10000101 @
b11 ;
b10 .
b10 ?
17
1,
b1 )
1!
#50000
0!
#55000
b10 ;
07
b10000101 *
1!
#60000
0!
#65000
b11010110 $
b11010110 @
b0 ;
b11 .
b11 ?
11
1!
#70000
0!
#75000
01
b1 ;
1!
#80000
0!
#85000
b10 ;
b11 )
0,
b100 0
1!
#90000
0!
#95000
bx $
bx @
b0 ;
b100 .
b100 ?
11
1!
#100000
0!
#105000
01
b1 ;
1!
